%YAML 1.1
%TAG !u! tag:unity3d.com,2011:
--- !u!1045 &1
EditorBuildSettings:
  m_ObjectHideFlags: 0
  serializedVersion: 2
  m_Scenes:
  - enabled: 1
    path: Assets/Scenes/Menu.unity
    guid: 3170ea1bb9de44a428f31efeb0498e93
  - enabled: 1
    path: Assets/Scenes/Gameplay.unity
    guid: 656f493ce5c73b4408cec4c949354aba
